An introduction to hydroscoper
…
library(hydroscoper)
library(ggplot2)
library(tibble)

We will use the package’s data stations and timeseries, to reduce the time needed with data munging. We can subset the station’s data for the kyy sub-domain with:

# load data
data("stations")

# subset stations data
kyy_stations <- subset(stations, subdomain == "kyy")

# view kyy stations
kyy_stations
#> # A tibble: 425 x 9
#>    station_id name  water_basin water_division owner longitude latitude altitude
#>         <int> <chr> <chr>       <chr>          <chr>     <dbl>    <dbl>    <dbl>
#>  1     501032 AG. … "KOURTALIO… GR13           min_…      NA       NA        NA 
#>  2     200246 GEPH… "ALPHEIOS … GR01           min_…      22.0     37.5     318 
#>  3     200237 TROP… "ALPHEIOS … GR01           min_…      22.0     37.7     728.
#>  4     200231 BYTI… "ALPHEIOS … GR01           min_…      22.2     37.7    1011.
#>  5     200200 LYKO… "ALPHEIOS … GR01           min_…      22.2     37.9     758.
#>  6     200236 MEGA… "ALPHEIOS … GR01           min_…      22.1     37.4     429.
#>  7     200244 ODOG… "REMA CHOR… GR01           min_…      21.8     37.0     182.
#>  8     200204 TRIP… "ALPHEIOS … GR01           min_…      21.9     37.9     570.
#>  9     200198 KAST… "ALPHEIOS … GR01           min_…      22.0     37.9     792.
#> 10     200239 PERD… "ALPHEIOS … GR01           min_…      22.0     37.7     837.
#> # … with 415 more rows, and 1 more variable: subdomain <chr>
…
station_ts <- subset(timeseries, station_id == 200200)
station_ts
#> # A tibble: 4 x 8
#>   time_id station_id variable  timestep  units start_date   end_date   subdomain
#>     <int>      <int> <chr>     <chr>     <chr> <chr>        <chr>      <chr>    
#> 1     761     200200 wind_dir… <NA>      °     1948-01-01T… 1997-07-3… kyy      
#> 2      56     200200 precipit… 30_minut… mm    1985-05-06T… 1997-01-0… kyy      
#> 3     760     200200 snow      daily     mm    1948-01-01T… 1997-07-3… kyy      
#> 4     759     200200 precipit… daily     mm    1953-03-01T… 2011-06-3… kyy

We can download the station’s precipitation time series 56:

ts_raw <- get_data(subdomain = "kyy", time_id = 56)
ts_raw
#> # A tibble: 147,519 x 3
#>    date                value comment
#>    <dttm>              <dbl> <chr>  
#>  1 1985-05-06 08:00:00     0 1      
#>  2 1985-05-06 08:30:00     0 1      
#>  3 1985-05-06 09:00:00     0 1      
#>  4 1985-05-06 09:30:00     0 1      
#>  5 1985-05-06 10:00:00     0 1      
#>  6 1985-05-06 10:30:00     0 1      
#>  7 1985-05-06 11:00:00     0 1      
#>  8 1985-05-06 11:30:00     0 1      
#>  9 1985-05-06 12:00:00     0 1      
#> 10 1985-05-06 12:30:00     0 1      
#> # … with 147,509 more rows
…
